$30=1000
$32=1
G90 G21 M4
F500
S588
G0 X5.2 Y45.2
G1 X5.0 Y44.7
G1 X4.7 Y44.5
G1 X4.1 Y44.2
G1 X2.1 Y44.2
G1 X2.1 Y42.1
G1 X2.0 Y42.1
G1 X2.0 Y46.8
G1 X4.1 Y46.8
G1 X4.7 Y46.6
G1 X5.0 Y46.3
G1 X5.2 Y45.9
G1 X5.2 Y45.2
G0 X5.1 Y45.2
G1 X5.1 Y45.8
G1 X4.9 Y46.3
G1 X4.7 Y46.5
G1 X4.0 Y46.7
G1 X2.1 Y46.7
G1 X2.1 Y44.3
G1 X4.0 Y44.3
G1 X4.7 Y44.6
G1 X4.9 Y44.8
G1 X5.1 Y45.2
G0 X9.4 Y43.4
G1 X9.2 Y42.7
G1 X8.7 Y42.2
G1 X8.3 Y42.0
G1 X7.6 Y42.0
G1 X7.1 Y42.2
G1 X6.7 Y42.7
G1 X6.4 Y43.4
G1 X6.4 Y43.9
G1 X6.7 Y44.5
G1 X7.1 Y45.0
G1 X7.6 Y45.2
G1 X8.3 Y45.2
G1 X8.7 Y45.0
G1 X9.2 Y44.5
G1 X9.4 Y43.9
G1 X9.4 Y43.4
G0 X9.3 Y43.4
G1 X9.3 Y43.8
G1 X9.1 Y44.5
G1 X8.7 Y44.9
G1 X8.2 Y45.1
G1 X7.6 Y45.1
G1 X7.2 Y44.9
G1 X6.7 Y44.5
G1 X6.5 Y43.8
G1 X6.5 Y43.4
G1 X6.7 Y42.8
G1 X7.2 Y42.3
G1 X7.6 Y42.1
G1 X8.2 Y42.1
G1 X8.7 Y42.3
G1 X9.1 Y42.8
G1 X9.3 Y43.4
G0 X14.5 Y45.2
G1 X13.6 Y42.1
G1 X13.5 Y42.1
G1 X12.7 Y45.0
G1 X11.8 Y42.1
G1 X11.7 Y42.1
G1 X10.9 Y45.2
G1 X11.0 Y45.2
G1 X11.8 Y42.3
G1 X12.6 Y45.2
G1 X12.7 Y45.2
G1 X13.6 Y42.3
G1 X14.4 Y45.2
G1 X14.5 Y45.2
G0 X18.3 Y43.8
G1 X15.6 Y43.8
G1 X15.6 Y43.4
G1 X15.8 Y42.8
G1 X16.3 Y42.3
G1 X16.7 Y42.1
G1 X17.3 Y42.1
G1 X17.7 Y42.3
G1 X18.2 Y42.8
G1 X18.3 Y42.7
G1 X17.8 Y42.2
G1 X17.3 Y42.0
G1 X16.7 Y42.0
G1 X16.2 Y42.2
G1 X15.7 Y42.7
G1 X15.5 Y43.4
G1 X15.5 Y43.9
G1 X15.7 Y44.5
G1 X16.2 Y45.0
G1 X16.7 Y45.2
G1 X17.3 Y45.2
G1 X17.8 Y45.0
G1 X18.0 Y44.8
G1 X18.3 Y44.3
G1 X18.3 Y43.8
G0 X18.2 Y43.9
G1 X18.2 Y44.3
G1 X18.0 Y44.7
G1 X17.7 Y44.9
G1 X17.3 Y45.1
G1 X16.7 Y45.1
G1 X16.3 Y44.9
G1 X15.8 Y44.5
G1 X15.6 Y43.9
G1 X18.2 Y43.9
G0 X21.5 Y45.1
G1 X20.9 Y45.1
G1 X20.5 Y44.9
G1 X20.0 Y44.5
G1 X19.8 Y43.8
G1 X19.8 Y42.1
G1 X19.7 Y42.1
G1 X19.7 Y45.2
G1 X19.8 Y45.2
G1 X19.8 Y44.2
G1 X19.9 Y44.5
G1 X20.4 Y45.0
G1 X20.9 Y45.2
G1 X21.5 Y45.2
G1 X21.5 Y45.1
G0 X23.1 Y45.0
G1 X22.8 Y44.7
G1 X22.6 Y45.0
G1 X22.8 Y45.2
G1 X23.1 Y45.0
G0 X23.1 Y42.3
G1 X22.8 Y42.0
G1 X22.6 Y42.3
G1 X22.8 Y42.6
G1 X23.1 Y42.3
G0 X23.0 Y45.0
G1 X22.8 Y45.1
G1 X22.7 Y45.0
G1 X22.8 Y44.8
G1 X23.0 Y45.0
G0 X23.0 Y42.3
G1 X22.8 Y42.4
G1 X22.7 Y42.3
G1 X22.8 Y42.1
G1 X23.0 Y42.3
G0 X28.9 Y43.4
G1 X28.6 Y42.7
G1 X28.2 Y42.2
G1 X27.5 Y42.0
G1 X26.8 Y42.0
G1 X26.1 Y42.2
G1 X25.9 Y42.5
G1 X25.7 Y42.9
G1 X25.8 Y43.0
G1 X26.0 Y42.5
G1 X26.2 Y42.3
G1 X26.8 Y42.1
G1 X27.5 Y42.1
G1 X28.1 Y42.3
G1 X28.6 Y42.8
G1 X28.8 Y43.4
G1 X28.8 Y43.8
G1 X28.6 Y44.5
G1 X28.1 Y44.9
G1 X27.5 Y45.1
G1 X26.8 Y45.1
G1 X26.2 Y44.9
G1 X25.9 Y44.6
G1 X26.1 Y46.8
G1 X28.4 Y46.8
G1 X28.4 Y46.7
G1 X26.2 Y46.7
G1 X26.0 Y44.9
G1 X26.1 Y45.0
G1 X26.8 Y45.2
G1 X27.5 Y45.2
G1 X28.2 Y45.0
G1 X28.6 Y44.5
G1 X28.9 Y43.9
G1 X28.9 Y43.4
G0 X33.3 Y44.1
G1 X33.1 Y42.9
G1 X32.6 Y42.2
G1 X31.9 Y42.0
G1 X31.5 Y42.0
G1 X30.8 Y42.2
G1 X30.3 Y42.9
G1 X30.1 Y44.1
G1 X30.1 Y44.7
G1 X30.3 Y45.9
G1 X30.8 Y46.6
G1 X31.5 Y46.8
G1 X31.9 Y46.8
G1 X32.6 Y46.6
G1 X33.1 Y45.9
G1 X33.3 Y44.7
G1 X33.3 Y44.1
G0 X33.2 Y44.1
G1 X33.2 Y44.7
G1 X33.0 Y45.8
G1 X32.6 Y46.5
G1 X31.9 Y46.7
G1 X31.5 Y46.7
G1 X30.8 Y46.5
G1 X30.4 Y45.8
G1 X30.2 Y44.7
G1 X30.2 Y44.1
G1 X30.4 Y43.0
G1 X30.8 Y42.3
G1 X31.5 Y42.1
G1 X31.9 Y42.1
G1 X32.6 Y42.3
G1 X33.0 Y43.0
G1 X33.2 Y44.1
G0 X40.2 Y42.1
G1 X40.1 Y42.1
G1 X40.1 Y46.6
G1 X39.5 Y46.0
G1 X39.0 Y45.8
G1 X39.0 Y45.9
G1 X39.4 Y46.1
G1 X40.1 Y46.8
G1 X40.2 Y46.8
G1 X40.2 Y42.1
G0 X45.5 Y44.1
G1 X45.3 Y42.9
G1 X44.8 Y42.2
G1 X44.1 Y42.0
G1 X43.6 Y42.0
G1 X42.9 Y42.2
G1 X42.5 Y42.9
G1 X42.3 Y44.1
G1 X42.3 Y44.7
G1 X42.5 Y45.9
G1 X42.9 Y46.6
G1 X43.6 Y46.8
G1 X44.1 Y46.8
G1 X44.8 Y46.6
G1 X45.3 Y45.9
G1 X45.5 Y44.7
G1 X45.5 Y44.1
G0 X45.4 Y44.1
G1 X45.4 Y44.7
G1 X45.1 Y45.8
G1 X44.7 Y46.5
G1 X44.1 Y46.7
G1 X43.7 Y46.7
G1 X43.0 Y46.5
G1 X42.6 Y45.8
G1 X42.4 Y44.7
G1 X42.4 Y44.1
G1 X42.6 Y43.0
G1 X43.0 Y42.3
G1 X43.7 Y42.1
G1 X44.1 Y42.1
G1 X44.7 Y42.3
G1 X45.1 Y43.0
G1 X45.4 Y44.1
G0 X49.9 Y44.1
G1 X49.7 Y42.9
G1 X49.2 Y42.2
G1 X48.5 Y42.0
G1 X48.1 Y42.0
G1 X47.4 Y42.2
G1 X46.9 Y42.9
G1 X46.7 Y44.1
G1 X46.7 Y44.7
G1 X46.9 Y45.9
G1 X47.4 Y46.6
G1 X48.1 Y46.8
G1 X48.5 Y46.8
G1 X49.2 Y46.6
G1 X49.7 Y45.9
G1 X49.9 Y44.7
G1 X49.9 Y44.1
G0 X49.8 Y44.1
G1 X49.8 Y44.7
G1 X49.6 Y45.8
G1 X49.2 Y46.5
G1 X48.5 Y46.7
G1 X48.1 Y46.7
G1 X47.4 Y46.5
G1 X47.0 Y45.8
G1 X46.8 Y44.7
G1 X46.8 Y44.1
G1 X47.0 Y43.0
G1 X47.4 Y42.3
G1 X48.1 Y42.1
G1 X48.5 Y42.1
G1 X49.2 Y42.3
G1 X49.6 Y43.0
G1 X49.8 Y44.1
G0 X56.8 Y42.1
G1 X56.7 Y42.1
G1 X56.7 Y46.6
G1 X56.1 Y46.0
G1 X55.6 Y45.8
G1 X55.6 Y45.9
G1 X56.0 Y46.1
G1 X56.7 Y46.8
G1 X56.8 Y46.8
G1 X56.8 Y42.1
G0 X62.1 Y43.4
G1 X61.8 Y42.7
G1 X61.4 Y42.2
G1 X60.7 Y42.0
G1 X60.0 Y42.0
G1 X59.3 Y42.2
G1 X59.1 Y42.5
G1 X58.9 Y42.9
G1 X58.9 Y43.0
G1 X59.2 Y42.5
G1 X59.4 Y42.3
G1 X60.0 Y42.1
G1 X60.7 Y42.1
G1 X61.3 Y42.3
G1 X61.7 Y42.8
G1 X62.0 Y43.4
G1 X62.0 Y43.8
G1 X61.7 Y44.5
G1 X61.3 Y44.9
G1 X60.7 Y45.1
G1 X60.0 Y45.1
G1 X59.4 Y44.9
G1 X59.1 Y44.6
G1 X59.3 Y46.8
G1 X61.6 Y46.8
G1 X61.6 Y46.7
G1 X59.4 Y46.7
G1 X59.2 Y44.9
G1 X59.3 Y45.0
G1 X60.0 Y45.2
G1 X60.7 Y45.2
G1 X61.4 Y45.0
G1 X61.8 Y44.5
G1 X62.1 Y43.9
G1 X62.1 Y43.4
G0 X66.5 Y44.1
G1 X66.3 Y42.9
G1 X65.8 Y42.2
G1 X65.1 Y42.0
G1 X64.7 Y42.0
G1 X64.0 Y42.2
G1 X63.5 Y42.9
G1 X63.3 Y44.1
G1 X63.3 Y44.7
G1 X63.5 Y45.9
G1 X64.0 Y46.6
G1 X64.7 Y46.8
G1 X65.1 Y46.8
G1 X65.8 Y46.6
G1 X66.3 Y45.9
G1 X66.5 Y44.7
G1 X66.5 Y44.1
G0 X66.4 Y44.1
G1 X66.4 Y44.7
G1 X66.2 Y45.8
G1 X65.7 Y46.5
G1 X65.1 Y46.7
G1 X64.7 Y46.7
G1 X64.0 Y46.5
G1 X63.6 Y45.8
G1 X63.4 Y44.7
G1 X63.4 Y44.1
G1 X63.6 Y43.0
G1 X64.0 Y42.3
G1 X64.7 Y42.1
G1 X65.1 Y42.1
G1 X65.7 Y42.3
G1 X66.2 Y43.0
G1 X66.4 Y44.1
G0 X75.1 Y42.0
G1 X71.8 Y42.0
G1 X74.1 Y44.3
G1 X74.6 Y45.0
G1 X74.8 Y45.4
G1 X74.8 Y45.8
G1 X74.6 Y46.3
G1 X74.4 Y46.5
G1 X73.9 Y46.7
G1 X73.1 Y46.7
G1 X72.7 Y46.5
G1 X72.5 Y46.3
G1 X72.2 Y45.8
G1 X72.2 Y45.6
G1 X72.1 Y45.6
G1 X72.1 Y45.9
G1 X72.4 Y46.3
G1 X72.6 Y46.6
G1 X73.1 Y46.8
G1 X74.0 Y46.8
G1 X74.4 Y46.6
G1 X74.7 Y46.3
G1 X74.9 Y45.9
G1 X74.9 Y45.4
G1 X74.7 Y44.9
G1 X74.2 Y44.3
G1 X72.1 Y42.1
G1 X75.1 Y42.1
G1 X75.1 Y42.0
G0 X79.6 Y44.1
G1 X79.3 Y42.9
G1 X78.9 Y42.2
G1 X78.2 Y42.0
G1 X77.7 Y42.0
G1 X77.0 Y42.2
G1 X76.6 Y42.9
G1 X76.3 Y44.1
G1 X76.3 Y44.7
G1 X76.6 Y45.9
G1 X77.0 Y46.6
G1 X77.7 Y46.8
G1 X78.2 Y46.8
G1 X78.9 Y46.6
G1 X79.3 Y45.9
G1 X79.6 Y44.7
G1 X79.6 Y44.1
G0 X79.5 Y44.1
G1 X79.5 Y44.7
G1 X79.2 Y45.8
G1 X78.8 Y46.5
G1 X78.2 Y46.7
G1 X77.7 Y46.7
G1 X77.1 Y46.5
G1 X76.7 Y45.8
G1 X76.4 Y44.7
G1 X76.4 Y44.1
G1 X76.7 Y43.0
G1 X77.1 Y42.3
G1 X77.7 Y42.1
G1 X78.2 Y42.1
G1 X78.8 Y42.3
G1 X79.2 Y43.0
G1 X79.5 Y44.1
G0 X84.0 Y44.1
G1 X83.8 Y42.9
G1 X83.3 Y42.2
G1 X82.6 Y42.0
G1 X82.1 Y42.0
G1 X81.5 Y42.2
G1 X81.0 Y42.9
G1 X80.8 Y44.1
G1 X80.8 Y44.7
G1 X81.0 Y45.9
G1 X81.5 Y46.6
G1 X82.1 Y46.8
G1 X82.6 Y46.8
G1 X83.3 Y46.6
G1 X83.8 Y45.9
G1 X84.0 Y44.7
G1 X84.0 Y44.1
G0 X83.9 Y44.1
G1 X83.9 Y44.7
G1 X83.7 Y45.8
G1 X83.2 Y46.5
G1 X82.6 Y46.7
G1 X82.2 Y46.7
G1 X81.5 Y46.5
G1 X81.1 Y45.8
G1 X80.9 Y44.7
G1 X80.9 Y44.1
G1 X81.1 Y43.0
G1 X81.5 Y42.3
G1 X82.2 Y42.1
G1 X82.6 Y42.1
G1 X83.2 Y42.3
G1 X83.7 Y43.0
G1 X83.9 Y44.1
G0 X92.6 Y42.0
G1 X89.3 Y42.0
G1 X91.6 Y44.3
G1 X92.1 Y45.0
G1 X92.3 Y45.4
G1 X92.3 Y45.8
G1 X92.1 Y46.3
G1 X91.9 Y46.5
G1 X91.4 Y46.7
G1 X90.6 Y46.7
G1 X90.1 Y46.5
G1 X89.9 Y46.3
G1 X89.7 Y45.8
G1 X89.7 Y45.6
G1 X89.6 Y45.6
G1 X89.6 Y45.9
G1 X89.8 Y46.3
G1 X90.1 Y46.6
G1 X90.5 Y46.8
G1 X91.5 Y46.8
G1 X91.9 Y46.6
G1 X92.2 Y46.3
G1 X92.4 Y45.9
G1 X92.4 Y45.4
G1 X92.2 Y44.9
G1 X91.7 Y44.3
G1 X89.6 Y42.1
G1 X92.6 Y42.1
G1 X92.6 Y42.0
G0 X97.0 Y43.4
G1 X96.8 Y42.7
G1 X96.3 Y42.2
G1 X95.7 Y42.0
G1 X95.0 Y42.0
G1 X94.3 Y42.2
G1 X94.1 Y42.5
G1 X93.8 Y42.9
G1 X93.9 Y43.0
G1 X94.1 Y42.5
G1 X94.3 Y42.3
G1 X95.0 Y42.1
G1 X95.7 Y42.1
G1 X96.3 Y42.3
G1 X96.7 Y42.8
G1 X96.9 Y43.4
G1 X96.9 Y43.8
G1 X96.7 Y44.5
G1 X96.3 Y44.9
G1 X95.7 Y45.1
G1 X95.0 Y45.1
G1 X94.3 Y44.9
G1 X94.0 Y44.6
G1 X94.3 Y46.8
G1 X96.5 Y46.8
G1 X96.5 Y46.7
G1 X94.4 Y46.7
G1 X94.2 Y44.9
G1 X94.3 Y45.0
G1 X95.0 Y45.2
G1 X95.7 Y45.2
G1 X96.3 Y45.0
G1 X96.8 Y44.5
G1 X97.0 Y43.9
G1 X97.0 Y43.4
G0 X101.5 Y44.1
G1 X101.2 Y42.9
G1 X100.8 Y42.2
G1 X100.1 Y42.0
G1 X99.6 Y42.0
G1 X98.9 Y42.2
G1 X98.5 Y42.9
G1 X98.3 Y44.1
G1 X98.3 Y44.7
G1 X98.5 Y45.9
G1 X98.9 Y46.6
G1 X99.6 Y46.8
G1 X100.1 Y46.8
G1 X100.8 Y46.6
G1 X101.2 Y45.9
G1 X101.5 Y44.7
G1 X101.5 Y44.1
G0 X101.4 Y44.1
G1 X101.4 Y44.7
G1 X101.1 Y45.8
G1 X100.7 Y46.5
G1 X100.1 Y46.7
G1 X99.6 Y46.7
G1 X99.0 Y46.5
G1 X98.6 Y45.8
G1 X98.4 Y44.7
G1 X98.4 Y44.1
G1 X98.6 Y43.0
G1 X99.0 Y42.3
G1 X99.6 Y42.1
G1 X100.1 Y42.1
G1 X100.7 Y42.3
G1 X101.1 Y43.0
G1 X101.4 Y44.1
G0 X9.0 Y34.0
G1 X5.6 Y34.0
G1 X8.0 Y36.4
G1 X8.5 Y37.1
G1 X8.7 Y37.5
G1 X8.7 Y38.0
G1 X8.5 Y38.4
G1 X8.3 Y38.6
G1 X7.8 Y38.9
G1 X6.9 Y38.9
G1 X6.5 Y38.6
G1 X6.3 Y38.4
G1 X6.0 Y38.0
G1 X6.0 Y37.8
G1 X5.9 Y37.8
G1 X5.9 Y38.0
G1 X6.2 Y38.5
G1 X6.4 Y38.7
G1 X6.9 Y39.0
G1 X7.8 Y39.0
G1 X8.3 Y38.7
G1 X8.6 Y38.5
G1 X8.8 Y38.0
G1 X8.8 Y37.5
G1 X8.6 Y37.0
G1 X8.1 Y36.3
G1 X5.9 Y34.1
G1 X9.0 Y34.1
G1 X9.0 Y34.0
G0 X13.6 Y36.1
G1 X13.4 Y35.0
G1 X12.9 Y34.2
G1 X12.2 Y34.0
G1 X11.7 Y34.0
G1 X11.0 Y34.2
G1 X10.5 Y35.0
G1 X10.3 Y36.1
G1 X10.3 Y36.8
G1 X10.5 Y38.0
G1 X11.0 Y38.7
G1 X11.7 Y39.0
G1 X12.2 Y39.0
G1 X12.9 Y38.7
G1 X13.4 Y38.0
G1 X13.6 Y36.8
G1 X13.6 Y36.1
G0 X13.5 Y36.1
G1 X13.5 Y36.8
G1 X13.3 Y38.0
G1 X12.9 Y38.6
G1 X12.2 Y38.9
G1 X11.8 Y38.9
G1 X11.1 Y38.6
G1 X10.6 Y38.0
G1 X10.4 Y36.8
G1 X10.4 Y36.1
G1 X10.6 Y35.0
G1 X11.1 Y34.3
G1 X11.8 Y34.1
G1 X12.2 Y34.1
G1 X12.9 Y34.3
G1 X13.3 Y35.0
G1 X13.5 Y36.1
G0 X18.3 Y36.1
G1 X18.0 Y35.0
G1 X17.5 Y34.2
G1 X16.8 Y34.0
G1 X16.3 Y34.0
G1 X15.6 Y34.2
G1 X15.1 Y35.0
G1 X14.9 Y36.1
G1 X14.9 Y36.8
G1 X15.1 Y38.0
G1 X15.6 Y38.7
G1 X16.3 Y39.0
G1 X16.8 Y39.0
G1 X17.5 Y38.7
G1 X18.0 Y38.0
G1 X18.3 Y36.8
G1 X18.3 Y36.1
G0 X18.2 Y36.1
G1 X18.2 Y36.8
G1 X17.9 Y38.0
G1 X17.5 Y38.6
G1 X16.8 Y38.9
G1 X16.4 Y38.9
G1 X15.7 Y38.6
G1 X15.2 Y38.0
G1 X15.0 Y36.8
G1 X15.0 Y36.1
G1 X15.2 Y35.0
G1 X15.7 Y34.3
G1 X16.4 Y34.1
G1 X16.8 Y34.1
G1 X17.5 Y34.3
G1 X17.9 Y35.0
G1 X18.2 Y36.1
G0 X9.2 Y27.6
G1 X8.1 Y27.6
G1 X8.1 Y26.1
G1 X8.0 Y26.1
G1 X8.0 Y27.6
G1 X5.6 Y27.6
G1 X8.1 Y31.1
G1 X8.1 Y27.7
G1 X9.2 Y27.7
G1 X9.2 Y27.6
G0 X8.0 Y27.7
G1 X8.0 Y30.7
G1 X5.8 Y27.7
G1 X8.0 Y27.7
G0 X13.6 Y28.1
G1 X13.4 Y27.0
G1 X12.9 Y26.2
G1 X12.2 Y26.0
G1 X11.7 Y26.0
G1 X11.0 Y26.2
G1 X10.5 Y27.0
G1 X10.3 Y28.1
G1 X10.3 Y28.8
G1 X10.5 Y30.0
G1 X11.0 Y30.7
G1 X11.7 Y31.0
G1 X12.2 Y31.0
G1 X12.9 Y30.7
G1 X13.4 Y30.0
G1 X13.6 Y28.8
G1 X13.6 Y28.1
G0 X13.5 Y28.1
G1 X13.5 Y28.8
G1 X13.3 Y30.0
G1 X12.9 Y30.6
G1 X12.2 Y30.9
G1 X11.8 Y30.9
G1 X11.1 Y30.6
G1 X10.6 Y30.0
G1 X10.4 Y28.8
G1 X10.4 Y28.1
G1 X10.6 Y27.0
G1 X11.1 Y26.3
G1 X11.8 Y26.1
G1 X12.2 Y26.1
G1 X12.9 Y26.3
G1 X13.3 Y27.0
G1 X13.5 Y28.1
G0 X18.3 Y28.1
G1 X18.0 Y27.0
G1 X17.5 Y26.2
G1 X16.8 Y26.0
G1 X16.3 Y26.0
G1 X15.6 Y26.2
G1 X15.1 Y27.0
G1 X14.9 Y28.1
G1 X14.9 Y28.8
G1 X15.1 Y30.0
G1 X15.6 Y30.7
G1 X16.3 Y31.0
G1 X16.8 Y31.0
G1 X17.5 Y30.7
G1 X18.0 Y30.0
G1 X18.3 Y28.8
G1 X18.3 Y28.1
G0 X18.2 Y28.1
G1 X18.2 Y28.8
G1 X17.9 Y30.0
G1 X17.5 Y30.6
G1 X16.8 Y30.9
G1 X16.4 Y30.9
G1 X15.7 Y30.6
G1 X15.2 Y30.0
G1 X15.0 Y28.8
G1 X15.0 Y28.1
G1 X15.2 Y27.0
G1 X15.7 Y26.3
G1 X16.4 Y26.1
G1 X16.8 Y26.1
G1 X17.5 Y26.3
G1 X17.9 Y27.0
G1 X18.2 Y28.1
G0 X9.0 Y19.4
G1 X8.8 Y18.7
G1 X8.3 Y18.2
G1 X7.6 Y18.0
G1 X7.4 Y18.0
G1 X6.6 Y18.2
G1 X6.2 Y18.7
G1 X5.9 Y19.7
G1 X5.9 Y20.8
G1 X6.2 Y22.0
G1 X6.4 Y22.5
G1 X6.6 Y22.7
G1 X7.4 Y23.0
G1 X7.8 Y23.0
G1 X8.6 Y22.7
G1 X8.8 Y22.2
G1 X8.7 Y22.2
G1 X8.5 Y22.6
G1 X7.8 Y22.9
G1 X7.4 Y22.9
G1 X6.7 Y22.6
G1 X6.5 Y22.4
G1 X6.3 Y22.0
G1 X6.0 Y20.8
G1 X6.0 Y20.0
G1 X6.2 Y20.4
G1 X6.6 Y20.9
G1 X7.4 Y21.1
G1 X7.6 Y21.1
G1 X8.3 Y20.9
G1 X8.8 Y20.4
G1 X9.0 Y19.7
G1 X9.0 Y19.4
G0 X8.9 Y19.5
G1 X8.9 Y19.7
G1 X8.7 Y20.3
G1 X8.3 Y20.8
G1 X7.6 Y21.0
G1 X7.4 Y21.0
G1 X6.7 Y20.8
G1 X6.3 Y20.3
G1 X6.0 Y19.7
G1 X6.3 Y18.8
G1 X6.7 Y18.3
G1 X7.4 Y18.1
G1 X7.6 Y18.1
G1 X8.3 Y18.3
G1 X8.7 Y18.8
G1 X8.9 Y19.5
G0 X13.6 Y20.1
G1 X13.4 Y19.0
G1 X12.9 Y18.2
G1 X12.2 Y18.0
G1 X11.7 Y18.0
G1 X11.0 Y18.2
G1 X10.5 Y19.0
G1 X10.3 Y20.1
G1 X10.3 Y20.8
G1 X10.5 Y22.0
G1 X11.0 Y22.7
G1 X11.7 Y23.0
G1 X12.2 Y23.0
G1 X12.9 Y22.7
G1 X13.4 Y22.0
G1 X13.6 Y20.8
G1 X13.6 Y20.1
G0 X13.5 Y20.1
G1 X13.5 Y20.8
G1 X13.3 Y22.0
G1 X12.9 Y22.6
G1 X12.2 Y22.9
G1 X11.8 Y22.9
G1 X11.1 Y22.6
G1 X10.6 Y22.0
G1 X10.4 Y20.8
G1 X10.4 Y20.1
G1 X10.6 Y19.0
G1 X11.1 Y18.3
G1 X11.8 Y18.1
G1 X12.2 Y18.1
G1 X12.9 Y18.3
G1 X13.3 Y19.0
G1 X13.5 Y20.1
G0 X18.3 Y20.1
G1 X18.0 Y19.0
G1 X17.5 Y18.2
G1 X16.8 Y18.0
G1 X16.3 Y18.0
G1 X15.6 Y18.2
G1 X15.1 Y19.0
G1 X14.9 Y20.1
G1 X14.9 Y20.8
G1 X15.1 Y22.0
G1 X15.6 Y22.7
G1 X16.3 Y23.0
G1 X16.8 Y23.0
G1 X17.5 Y22.7
G1 X18.0 Y22.0
G1 X18.3 Y20.8
G1 X18.3 Y20.1
G0 X18.2 Y20.1
G1 X18.2 Y20.8
G1 X17.9 Y22.0
G1 X17.5 Y22.6
G1 X16.8 Y22.9
G1 X16.4 Y22.9
G1 X15.7 Y22.6
G1 X15.2 Y22.0
G1 X15.0 Y20.8
G1 X15.0 Y20.1
G1 X15.2 Y19.0
G1 X15.7 Y18.3
G1 X16.4 Y18.1
G1 X16.8 Y18.1
G1 X17.5 Y18.3
G1 X17.9 Y19.0
G1 X18.2 Y20.1
G0 X9.0 Y11.0
G1 X8.6 Y10.2
G1 X7.8 Y10.0
G1 X6.9 Y10.0
G1 X6.2 Y10.2
G1 X5.9 Y10.5
G1 X5.7 Y11.0
G1 X5.7 Y11.7
G1 X5.9 Y12.2
G1 X6.4 Y12.6
G1 X7.1 Y12.9
G1 X6.6 Y13.0
G1 X6.2 Y13.3
G1 X5.9 Y13.7
G1 X5.9 Y14.2
G1 X6.2 Y14.7
G1 X6.9 Y15.0
G1 X7.8 Y15.0
G1 X8.6 Y14.7
G1 X8.8 Y14.2
G1 X8.8 Y13.7
G1 X8.6 Y13.3
G1 X8.1 Y13.0
G1 X7.6 Y12.9
G1 X7.6 Y12.9
G1 X8.3 Y12.6
G1 X8.8 Y12.2
G1 X9.0 Y11.7
G1 X9.0 Y11.0
G0 X8.7 Y13.8
G1 X8.7 Y14.2
G1 X8.5 Y14.6
G1 X7.8 Y14.9
G1 X6.9 Y14.9
G1 X6.2 Y14.6
G1 X6.0 Y14.2
G1 X6.0 Y13.8
G1 X6.2 Y13.3
G1 X6.7 Y13.1
G1 X7.4 Y12.9
G1 X8.0 Y13.1
G1 X8.5 Y13.3
G1 X8.7 Y13.8
G0 X8.9 Y11.0
G1 X8.9 Y11.7
G1 X8.7 Y12.1
G1 X8.3 Y12.6
G1 X7.6 Y12.8
G1 X7.4 Y12.8
G1 X7.1 Y12.8
G1 X6.5 Y12.6
G1 X6.0 Y12.1
G1 X5.8 Y11.7
G1 X5.8 Y11.0
G1 X6.0 Y10.5
G1 X6.2 Y10.3
G1 X6.9 Y10.1
G1 X7.8 Y10.1
G1 X8.5 Y10.3
G1 X8.9 Y11.0
G0 X13.6 Y12.1
G1 X13.4 Y11.0
G1 X12.9 Y10.2
G1 X12.2 Y10.0
G1 X11.7 Y10.0
G1 X11.0 Y10.2
G1 X10.5 Y11.0
G1 X10.3 Y12.1
G1 X10.3 Y12.8
G1 X10.5 Y14.0
G1 X11.0 Y14.7
G1 X11.7 Y15.0
G1 X12.2 Y15.0
G1 X12.9 Y14.7
G1 X13.4 Y14.0
G1 X13.6 Y12.8
G1 X13.6 Y12.1
G0 X13.5 Y12.1
G1 X13.5 Y12.8
G1 X13.3 Y14.0
G1 X12.9 Y14.6
G1 X12.2 Y14.9
G1 X11.8 Y14.9
G1 X11.1 Y14.6
G1 X10.6 Y14.0
G1 X10.4 Y12.8
G1 X10.4 Y12.1
G1 X10.6 Y11.0
G1 X11.1 Y10.3
G1 X11.8 Y10.1
G1 X12.2 Y10.1
G1 X12.9 Y10.3
G1 X13.3 Y11.0
G1 X13.5 Y12.1
G0 X18.3 Y12.1
G1 X18.0 Y11.0
G1 X17.5 Y10.2
G1 X16.8 Y10.0
G1 X16.3 Y10.0
G1 X15.6 Y10.2
G1 X15.1 Y11.0
G1 X14.9 Y12.1
G1 X14.9 Y12.8
G1 X15.1 Y14.0
G1 X15.6 Y14.7
G1 X16.3 Y15.0
G1 X16.8 Y15.0
G1 X17.5 Y14.7
G1 X18.0 Y14.0
G1 X18.3 Y12.8
G1 X18.3 Y12.1
G0 X18.2 Y12.1
G1 X18.2 Y12.8
G1 X17.9 Y14.0
G1 X17.5 Y14.6
G1 X16.8 Y14.9
G1 X16.4 Y14.9
G1 X15.7 Y14.6
G1 X15.2 Y14.0
G1 X15.0 Y12.8
G1 X15.0 Y12.1
G1 X15.2 Y11.0
G1 X15.7 Y10.3
G1 X16.4 Y10.1
G1 X16.8 Y10.1
G1 X17.5 Y10.3
G1 X17.9 Y11.0
G1 X18.2 Y12.1
G0 X3.5 Y2.1
G1 X3.4 Y2.1
G1 X3.4 Y6.8
G1 X2.8 Y6.2
G1 X2.3 Y5.9
G1 X2.3 Y6.0
G1 X2.7 Y6.3
G1 X3.4 Y7.0
G1 X3.5 Y7.0
G1 X3.5 Y2.1
G0 X9.0 Y4.1
G1 X8.8 Y3.0
G1 X8.3 Y2.2
G1 X7.6 Y2.0
G1 X7.1 Y2.0
G1 X6.4 Y2.2
G1 X5.9 Y3.0
G1 X5.7 Y4.1
G1 X5.7 Y4.8
G1 X5.9 Y6.0
G1 X6.4 Y6.7
G1 X7.1 Y7.0
G1 X7.6 Y7.0
G1 X8.3 Y6.7
G1 X8.8 Y6.0
G1 X9.0 Y4.8
G1 X9.0 Y4.1
G0 X8.9 Y4.1
G1 X8.9 Y4.8
G1 X8.7 Y6.0
G1 X8.3 Y6.6
G1 X7.6 Y6.9
G1 X7.1 Y6.9
G1 X6.5 Y6.6
G1 X6.0 Y6.0
G1 X5.8 Y4.8
G1 X5.8 Y4.1
G1 X6.0 Y3.0
G1 X6.5 Y2.3
G1 X7.1 Y2.1
G1 X7.6 Y2.1
G1 X8.3 Y2.3
G1 X8.7 Y3.0
G1 X8.9 Y4.1
G0 X13.6 Y4.1
G1 X13.4 Y3.0
G1 X12.9 Y2.2
G1 X12.2 Y2.0
G1 X11.7 Y2.0
G1 X11.0 Y2.2
G1 X10.5 Y3.0
G1 X10.3 Y4.1
G1 X10.3 Y4.8
G1 X10.5 Y6.0
G1 X11.0 Y6.7
G1 X11.7 Y7.0
G1 X12.2 Y7.0
G1 X12.9 Y6.7
G1 X13.4 Y6.0
G1 X13.6 Y4.8
G1 X13.6 Y4.1
G0 X13.5 Y4.1
G1 X13.5 Y4.8
G1 X13.3 Y6.0
G1 X12.9 Y6.6
G1 X12.2 Y6.9
G1 X11.8 Y6.9
G1 X11.1 Y6.6
G1 X10.6 Y6.0
G1 X10.4 Y4.8
G1 X10.4 Y4.1
G1 X10.6 Y3.0
G1 X11.1 Y2.3
G1 X11.8 Y2.1
G1 X12.2 Y2.1
G1 X12.9 Y2.3
G1 X13.3 Y3.0
G1 X13.5 Y4.1
G0 X18.3 Y4.1
G1 X18.0 Y3.0
G1 X17.5 Y2.2
G1 X16.8 Y2.0
G1 X16.3 Y2.0
G1 X15.6 Y2.2
G1 X15.1 Y3.0
G1 X14.9 Y4.1
G1 X14.9 Y4.8
G1 X15.1 Y6.0
G1 X15.6 Y6.7
G1 X16.3 Y7.0
G1 X16.8 Y7.0
G1 X17.5 Y6.7
G1 X18.0 Y6.0
G1 X18.3 Y4.8
G1 X18.3 Y4.1
G0 X18.2 Y4.1
G1 X18.2 Y4.8
G1 X17.9 Y6.0
G1 X17.5 Y6.6
G1 X16.8 Y6.9
G1 X16.4 Y6.9
G1 X15.7 Y6.6
G1 X15.2 Y6.0
G1 X15.0 Y4.8
G1 X15.0 Y4.1
G1 X15.2 Y3.0
G1 X15.7 Y2.3
G1 X16.4 Y2.1
G1 X16.8 Y2.1
G1 X17.5 Y2.3
G1 X17.9 Y3.0
G1 X18.2 Y4.1
S196
G0 X26.7 Y38.9
G1 X31.4 Y38.9
G1 X31.4 Y34.1
G1 X26.7 Y34.1
G1 X26.7 Y38.9
S392
G0 X43.7 Y38.9
G1 X48.4 Y38.9
G1 X48.4 Y34.1
G1 X43.7 Y34.1
G1 X43.7 Y38.9
S588
G0 X60.7 Y38.9
G1 X65.4 Y38.9
G1 X65.4 Y34.1
G1 X60.7 Y34.1
G1 X60.7 Y38.9
S784
G0 X77.7 Y38.9
G1 X82.4 Y38.9
G1 X82.4 Y34.1
G1 X77.7 Y34.1
G1 X77.7 Y38.9
S980
G0 X94.7 Y38.9
G1 X99.4 Y38.9
G1 X99.4 Y34.1
G1 X94.7 Y34.1
G1 X94.7 Y38.9
S196
G0 X26.7 Y30.9
G1 X31.4 Y30.9
G1 X31.4 Y26.1
G1 X26.7 Y26.1
G1 X26.7 Y30.9
S392
G0 X43.7 Y30.9
G1 X48.4 Y30.9
G1 X48.4 Y26.1
G1 X43.7 Y26.1
G1 X43.7 Y30.9
S588
G0 X60.7 Y30.9
G1 X65.4 Y30.9
G1 X65.4 Y26.1
G1 X60.7 Y26.1
G1 X60.7 Y30.9
S784
G0 X77.7 Y30.9
G1 X82.4 Y30.9
G1 X82.4 Y26.1
G1 X77.7 Y26.1
G1 X77.7 Y30.9
S980
G0 X94.7 Y30.9
G1 X99.4 Y30.9
G1 X99.4 Y26.1
G1 X94.7 Y26.1
G1 X94.7 Y30.9
S196
G0 X26.7 Y22.9
G1 X31.4 Y22.9
G1 X31.4 Y18.1
G1 X26.7 Y18.1
G1 X26.7 Y22.9
S392
G0 X43.7 Y22.9
G1 X48.4 Y22.9
G1 X48.4 Y18.1
G1 X43.7 Y18.1
G1 X43.7 Y22.9
S588
G0 X60.7 Y22.9
G1 X65.4 Y22.9
G1 X65.4 Y18.1
G1 X60.7 Y18.1
G1 X60.7 Y22.9
S784
G0 X77.7 Y22.9
G1 X82.4 Y22.9
G1 X82.4 Y18.1
G1 X77.7 Y18.1
G1 X77.7 Y22.9
S980
G0 X94.7 Y22.9
G1 X99.4 Y22.9
G1 X99.4 Y18.1
G1 X94.7 Y18.1
G1 X94.7 Y22.9
S196
G0 X26.7 Y14.9
G1 X31.4 Y14.9
G1 X31.4 Y10.1
G1 X26.7 Y10.1
G1 X26.7 Y14.9
S392
G0 X43.7 Y14.9
G1 X48.4 Y14.9
G1 X48.4 Y10.1
G1 X43.7 Y10.1
G1 X43.7 Y14.9
S588
G0 X60.7 Y14.9
G1 X65.4 Y14.9
G1 X65.4 Y10.1
G1 X60.7 Y10.1
G1 X60.7 Y14.9
S784
G0 X77.7 Y14.9
G1 X82.4 Y14.9
G1 X82.4 Y10.1
G1 X77.7 Y10.1
G1 X77.7 Y14.9
S980
G0 X94.7 Y14.9
G1 X99.4 Y14.9
G1 X99.4 Y10.1
G1 X94.7 Y10.1
G1 X94.7 Y14.9
S196
G0 X26.7 Y6.9
G1 X31.4 Y6.9
G1 X31.4 Y2.1
G1 X26.7 Y2.1
G1 X26.7 Y6.9
S392
G0 X43.7 Y6.9
G1 X48.4 Y6.9
G1 X48.4 Y2.1
G1 X43.7 Y2.1
G1 X43.7 Y6.9
S588
G0 X60.7 Y6.9
G1 X65.4 Y6.9
G1 X65.4 Y2.1
G1 X60.7 Y2.1
G1 X60.7 Y6.9
S784
G0 X77.7 Y6.9
G1 X82.4 Y6.9
G1 X82.4 Y2.1
G1 X77.7 Y2.1
G1 X77.7 Y6.9
S980
G0 X94.7 Y6.9
G1 X99.4 Y6.9
G1 X99.4 Y2.1
G1 X94.7 Y2.1
G1 X94.7 Y6.9
M5 G0 X0 Y0
